Transit exploratory analysis
…
These are the departures from the closest bus stop to my house.

# All departure times from my stop by route id
filter(stop_times_in, stop_code==my_stop$stop_code) %>%
  arrange(departure_time) %>%
  select(route_id, departure_time) %>% distinct()

## # A tibble: 68 x 2
##    route_id departure_time
##       <int>         <time>
##  1     1764       05:40:00
##  2     1764       06:10:00
##  3     1763       06:40:00
##  4     1764       06:40:00
##  5     1765       06:55:00
##  6     1764       07:10:00
##  7     1765       07:25:00
##  8     1763       07:40:00
##  9     1764       07:40:00
## 10     1765       07:55:00
## # ... with 58 more rows
…
